<?xml version="1.0" encoding="UTF-8" standalone="no"?>
<svg
   width="420mm"
   height="297mm"
   viewBox="0 0 420 297"
   version="1.1"
   id="svg51962"
   inkscape:version="1.1.1 (3bf5ae0d25, 2021-09-20, custom)"
   sodipodi:docname="recto.svg"
   xmlns:inkscape="http://www.inkscape.org/namespaces/inkscape"
   xmlns:sodipodi="http://sodipodi.sourceforge.net/DTD/sodipodi-0.dtd"
   xmlns="http://www.w3.org/2000/svg"
   xmlns:svg="http://www.w3.org/2000/svg"
   xmlns:rdf="http://www.w3.org/1999/02/22-rdf-syntax-ns#"
   xmlns:cc="http://creativecommons.org/ns#"
   xmlns:dc="http://purl.org/dc/elements/1.1/">
  <defs
     id="defs51956">
    <inkscape:path-effect
       effect="spiro"
       id="path-effect11327"
       is_visible="true"
       lpeversion="1" />
    <inkscape:path-effect
       effect="spiro"
       id="path-effect11323"
       is_visible="true"
       lpeversion="1" />
    <inkscape:path-effect
       effect="spiro"
       id="path-effect11319"
       is_visible="true"
       lpeversion="1" />
    <inkscape:path-effect
       effect="spiro"
       id="path-effect11315"
       is_visible="true"
       lpeversion="1" />
    <inkscape:path-effect
       effect="spiro"
       id="path-effect11311"
       is_visible="true"
       lpeversion="1" />
    <inkscape:path-effect
       effect="spiro"
       id="path-effect11307"
       is_visible="true"
       lpeversion="1" />
    <inkscape:path-effect
       effect="spiro"
       id="path-effect11303"
       is_visible="true"
       lpeversion="1" />
    <inkscape:path-effect
       effect="spiro"
       id="path-effect11299"
       is_visible="true"
       lpeversion="1" />
    <inkscape:path-effect
       effect="spiro"
       id="path-effect11295"
       is_visible="true"
       lpeversion="1" />
    <inkscape:path-effect
       effect="spiro"
       id="path-effect11291"
       is_visible="true"
       lpeversion="1" />
    <inkscape:path-effect
       effect="spiro"
       id="path-effect11287"
       is_visible="true"
       lpeversion="1" />
    <inkscape:path-effect
       effect="spiro"
       id="path-effect11283"
       is_visible="true"
       lpeversion="1" />
    <inkscape:path-effect
       effect="spiro"
       id="path-effect11279"
       is_visible="true"
       lpeversion="1" />
    <inkscape:path-effect
       effect="spiro"
       id="path-effect11275"
       is_visible="true"
       lpeversion="1" />
    <inkscape:path-effect
       effect="spiro"
       id="path-effect11271"
       is_visible="true"
       lpeversion="1" />
    <inkscape:path-effect
       effect="spiro"
       id="path-effect11267"
       is_visible="true"
       lpeversion="1" />
    <inkscape:path-effect
       effect="spiro"
       id="path-effect11263"
       is_visible="true"
       lpeversion="1" />
    <inkscape:path-effect
       effect="spiro"
       id="path-effect11259"
       is_visible="true"
       lpeversion="1" />
    <inkscape:path-effect
       effect="spiro"
       id="path-effect52439"
       is_visible="true"
       lpeversion="1" />
    <inkscape:path-effect
       effect="spiro"
       id="path-effect52437"
       is_visible="true"
       lpeversion="1" />
    <inkscape:path-effect
       effect="spiro"
       id="path-effect52435"
       is_visible="true"
       lpeversion="1" />
    <inkscape:path-effect
       effect="spiro"
       id="path-effect52433"
       is_visible="true"
       lpeversion="1" />
    <inkscape:path-effect
       effect="spiro"
       id="path-effect52431"
       is_visible="true"
       lpeversion="1" />
    <inkscape:path-effect
       effect="spiro"
       id="path-effect52429"
       is_visible="true"
       lpeversion="1" />
    <inkscape:path-effect
       effect="spiro"
       id="path-effect52427"
       is_visible="true"
       lpeversion="1" />
    <inkscape:path-effect
       effect="spiro"
       id="path-effect52425"
       is_visible="true"
       lpeversion="1" />
    <inkscape:path-effect
       effect="spiro"
       id="path-effect52423"
       is_visible="true"
       lpeversion="1" />
    <inkscape:path-effect
       effect="spiro"
       id="path-effect52421"
       is_visible="true"
       lpeversion="1" />
    <inkscape:path-effect
       effect="spiro"
       id="path-effect52419"
       is_visible="true"
       lpeversion="1" />
    <inkscape:path-effect
       effect="spiro"
       id="path-effect52417"
       is_visible="true"
       lpeversion="1" />
    <inkscape:path-effect
       effect="spiro"
       id="path-effect52415"
       is_visible="true"
       lpeversion="1" />
    <inkscape:path-effect
       effect="spiro"
       id="path-effect52413"
       is_visible="true"
       lpeversion="1" />
    <inkscape:path-effect
       effect="spiro"
       id="path-effect52411"
       is_visible="true"
       lpeversion="1" />
    <inkscape:path-effect
       effect="spiro"
       id="path-effect52409"
       is_visible="true"
       lpeversion="1" />
    <inkscape:path-effect
       effect="spiro"
       id="path-effect53441"
       is_visible="true"
       lpeversion="1" />
    <inkscape:path-effect
       effect="spiro"
       id="path-effect53437"
       is_visible="true"
       lpeversion="1" />
    <inkscape:path-effect
       effect="spiro"
       id="path-effect53433"
       is_visible="true"
       lpeversion="1" />
    <inkscape:path-effect
       effect="spiro"
       id="path-effect53429"
       is_visible="true"
       lpeversion="1" />
    <inkscape:path-effect
       effect="spiro"
       id="path-effect12041"
       is_visible="true"
       lpeversion="1" />
    <inkscape:path-effect
       effect="spiro"
       id="path-effect12043"
       is_visible="true"
       lpeversion="1" />
    <inkscape:path-effect
       effect="spiro"
       id="path-effect12045"
       is_visible="true"
       lpeversion="1" />
    <inkscape:path-effect
       effect="spiro"
       id="path-effect12047"
       is_visible="true"
       lpeversion="1" />
    <inkscape:path-effect
       effect="spiro"
       id="path-effect12049"
       is_visible="true"
       lpeversion="1" />
    <inkscape:path-effect
       effect="spiro"
       id="path-effect12051"
       is_visible="true"
       lpeversion="1" />
    <inkscape:path-effect
       effect="spiro"
       id="path-effect12187"
       is_visible="true"
       lpeversion="1" />
    <inkscape:path-effect
       effect="spiro"
       id="path-effect12189"
       is_visible="true"
       lpeversion="1" />
    <inkscape:path-effect
       effect="spiro"
       id="path-effect12191"
       is_visible="true"
       lpeversion="1" />
    <inkscape:path-effect
       effect="spiro"
       id="path-effect12193"
       is_visible="true"
       lpeversion="1" />
    <inkscape:path-effect
       effect="spiro"
       id="path-effect12195"
       is_visible="true"
       lpeversion="1" />
    <inkscape:path-effect
       effect="spiro"
       id="path-effect12197"
       is_visible="true"
       lpeversion="1" />
    <inkscape:path-effect
       effect="spiro"
       id="path-effect6006"
       is_visible="true"
       lpeversion="1" />
    <inkscape:path-effect
       effect="spiro"
       id="path-effect6011"
       is_visible="true"
       lpeversion="1" />
    <inkscape:path-effect
       effect="spiro"
       id="path-effect6015"
       is_visible="true"
       lpeversion="1" />
    <inkscape:path-effect
       effect="spiro"
       id="path-effect6019"
       is_visible="true"
       lpeversion="1" />
    <inkscape:path-effect
       effect="spiro"
       id="path-effect6023"
       is_visible="true"
       lpeversion="1" />
    <inkscape:path-effect
       effect="spiro"
       id="path-effect6027"
       is_visible="true"
       lpeversion="1" />
    <inkscape:path-effect
       effect="spiro"
       id="path-effect6055"
       is_visible="true"
       lpeversion="1" />
    <inkscape:path-effect
       effect="spiro"
       id="path-effect6059"
       is_visible="true"
       lpeversion="1" />
    <inkscape:path-effect
       effect="spiro"
       id="path-effect6063"
       is_visible="true"
       lpeversion="1" />
    <inkscape:path-effect
       effect="spiro"
       id="path-effect6067"
       is_visible="true"
       lpeversion="1" />
    <inkscape:path-effect
       effect="spiro"
       id="path-effect6071"
       is_visible="true"
       lpeversion="1" />
    <inkscape:path-effect
       effect="spiro"
       id="path-effect6076"
       is_visible="true"
       lpeversion="1" />
    <inkscape:path-effect
       effect="spiro"
       id="path-effect6080"
       is_visible="true"
       lpeversion="1" />
    <inkscape:path-effect
       effect="spiro"
       id="path-effect6084"
       is_visible="true"
       lpeversion="1" />
    <inkscape:path-effect
       effect="spiro"
       id="path-effect6088"
       is_visible="true"
       lpeversion="1" />
    <inkscape:path-effect
       effect="spiro"
       id="path-effect6092"
       is_visible="true"
       lpeversion="1" />
    <inkscape:path-effect
       effect="spiro"
       id="path-effect51499"
       is_visible="true"
       lpeversion="1" />
    <inkscape:path-effect
       effect="spiro"
       id="path-effect51503"
       is_visible="true"
       lpeversion="1" />
    <inkscape:path-effect
       effect="spiro"
       id="path-effect51507"
       is_visible="true"
       lpeversion="1" />
    <inkscape:path-effect
       effect="spiro"
       id="path-effect51511"
       is_visible="true"
       lpeversion="1" />
    <inkscape:path-effect
       effect="spiro"
       id="path-effect17460"
       is_visible="true"
       lpeversion="1" />
    <inkscape:path-effect
       effect="spiro"
       id="path-effect17464"
       is_visible="true"
       lpeversion="1" />
    <inkscape:path-effect
       effect="spiro"
       id="path-effect17468"
       is_visible="true"
       lpeversion="1" />
    <inkscape:path-effect
       effect="spiro"
       id="path-effect17472"
       is_visible="true"
       lpeversion="1" />
    <inkscape:path-effect
       effect="spiro"
       id="path-effect17476"
       is_visible="true"
       lpeversion="1" />
    <inkscape:path-effect
       effect="spiro"
       id="path-effect17480"
       is_visible="true"
       lpeversion="1" />
    <inkscape:path-effect
       effect="spiro"
       id="path-effect17484"
       is_visible="true"
       lpeversion="1" />
    <inkscape:path-effect
       effect="spiro"
       id="path-effect17488"
       is_visible="true"
       lpeversion="1" />
    <inkscape:path-effect
       effect="spiro"
       id="path-effect17492"
       is_visible="true"
       lpeversion="1" />
    <inkscape:path-effect
       effect="spiro"
       id="path-effect17496"
       is_visible="true"
       lpeversion="1" />
    <inkscape:path-effect
       effect="spiro"
       id="path-effect17500"
       is_visible="true"
       lpeversion="1" />
    <inkscape:path-effect
       effect="spiro"
       id="path-effect17504"
       is_visible="true"
       lpeversion="1" />
    <inkscape:path-effect
       effect="spiro"
       id="path-effect17508"
       is_visible="true"
       lpeversion="1" />
    <inkscape:path-effect
       effect="spiro"
       id="path-effect17512"
       is_visible="true"
       lpeversion="1" />
    <inkscape:path-effect
       effect="spiro"
       id="path-effect17516"
       is_visible="true"
       lpeversion="1" />
    <inkscape:path-effect
       effect="spiro"
       id="path-effect17520"
       is_visible="true"
       lpeversion="1" />
    <inkscape:path-effect
       effect="spiro"
       id="path-effect17536"
       is_visible="true"
       lpeversion="1" />
    <inkscape:path-effect
       effect="spiro"
       id="path-effect17538"
       is_visible="true"
       lpeversion="1" />
    <inkscape:path-effect
       effect="spiro"
       id="path-effect17540"
       is_visible="true"
       lpeversion="1" />
    <inkscape:path-effect
       effect="spiro"
       id="path-effect17542"
       is_visible="true"
       lpeversion="1" />
    <inkscape:path-effect
       effect="interpolate"
       id="path-effect17805"
       is_visible="true"
       lpeversion="1"
       trajectory="m 37.663337,1580.9869 26.919582,-39.9348"
       equidistant_spacing="true"
       steps="68" />
    <inkscape:path-effect
       effect="interpolate"
       id="path-effect17807"
       is_visible="true"
       lpeversion="1"
       trajectory="M 64.582928,1580.9869 37.663346,1541.0521"
       equidistant_spacing="true"
       steps="68" />
    <inkscape:path-effect
       effect="spiro"
       id="path-effect17809"
       is_visible="true"
       lpeversion="1" />
    <inkscape:path-effect
       effect="spiro"
       id="path-effect17811"
       is_visible="true"
       lpeversion="1" />
    <inkscape:path-effect
       effect="spiro"
       id="path-effect17813"
       is_visible="true"
       lpeversion="1" />
    <inkscape:path-effect
       effect="spiro"
       id="path-effect17815"
       is_visible="true"
       lpeversion="1" />
    <inkscape:path-effect
       effect="interpolate"
       id="path-effect17855"
       is_visible="true"
       lpeversion="1"
       trajectory="m 101.04436,1580.9769 26.91958,-39.9348"
       equidistant_spacing="true"
       steps="68" />
    <inkscape:path-effect
       effect="interpolate"
       id="path-effect17857"
       is_visible="true"
       lpeversion="1"
       trajectory="m 127.96395,1580.9769 -26.91958,-39.9348"
       equidistant_spacing="true"
       steps="68" />
    <inkscape:path-effect
       effect="spiro"
       id="path-effect17859"
       is_visible="true"
       lpeversion="1" />
    <inkscape:path-effect
       effect="spiro"
       id="path-effect17861"
       is_visible="true"
       lpeversion="1" />
    <inkscape:path-effect
       effect="spiro"
       id="path-effect17863"
       is_visible="true"
       lpeversion="1" />
    <inkscape:path-effect
       effect="spiro"
       id="path-effect17865"
       is_visible="true"
       lpeversion="1" />
    <inkscape:path-effect
       effect="interpolate"
       id="path-effect17889"
       is_visible="true"
       lpeversion="1"
       trajectory="m 164.42479,1580.9769 26.91958,-39.9348"
       equidistant_spacing="true"
       steps="68" />
    <inkscape:path-effect
       effect="interpolate"
       id="path-effect17891"
       is_visible="true"
       lpeversion="1"
       trajectory="M 191.34438,1580.9769 164.4248,1541.0421"
       equidistant_spacing="true"
       steps="68" />
    <inkscape:path-effect
       effect="spiro"
       id="path-effect17893"
       is_visible="true"
       lpeversion="1" />
    <inkscape:path-effect
       effect="spiro"
       id="path-effect17895"
       is_visible="true"
       lpeversion="1" />
    <inkscape:path-effect
       effect="spiro"
       id="path-effect17897"
       is_visible="true"
       lpeversion="1" />
    <inkscape:path-effect
       effect="spiro"
       id="path-effect17899"
       is_visible="true"
       lpeversion="1" />
    <inkscape:path-effect
       effect="interpolate"
       id="path-effect17923"
       is_visible="true"
       lpeversion="1"
       trajectory="m 227.80521,1580.9769 26.91958,-39.9348"
       equidistant_spacing="true"
       steps="68" />
    <inkscape:path-effect
       effect="interpolate"
       id="path-effect17925"
       is_visible="true"
       lpeversion="1"
       trajectory="m 254.7248,1580.9769 -26.91958,-39.9348"
       equidistant_spacing="true"
       steps="68" />
    <inkscape:path-effect
       effect="spiro"
       id="path-effect17927"
       is_visible="true"
       lpeversion="1" />
    <inkscape:path-effect
       effect="spiro"
       id="path-effect17929"
       is_visible="true"
       lpeversion="1" />
    <inkscape:path-effect
       effect="spiro"
       id="path-effect17931"
       is_visible="true"
       lpeversion="1" />
    <inkscape:path-effect
       effect="spiro"
       id="path-effect17933"
       is_visible="true"
       lpeversion="1" />
    <inkscape:path-effect
       effect="interpolate"
       id="path-effect17957"
       is_visible="true"
       lpeversion="1"
       trajectory="m 291.18563,1580.9769 26.91958,-39.9348"
       equidistant_spacing="true"
       steps="68" />
    <inkscape:path-effect
       effect="interpolate"
       id="path-effect17959"
       is_visible="true"
       lpeversion="1"
       trajectory="m 318.10522,1580.9769 -26.91958,-39.9348"
       equidistant_spacing="true"
       steps="68" />
    <inkscape:path-effect
       effect="spiro"
       id="path-effect17961"
       is_visible="true"
       lpeversion="1" />
    <inkscape:path-effect
       effect="spiro"
       id="path-effect17963"
       is_visible="true"
       lpeversion="1" />
    <inkscape:path-effect
       effect="spiro"
       id="path-effect17965"
       is_visible="true"
       lpeversion="1" />
    <inkscape:path-effect
       effect="spiro"
       id="path-effect17967"
       is_visible="true"
       lpeversion="1" />
    <inkscape:path-effect
       effect="interpolate"
       id="path-effect17991"
       is_visible="true"
       lpeversion="1"
       trajectory="m 354.56605,1580.9769 26.91958,-39.9348"
       equidistant_spacing="true"
       steps="68" />
    <inkscape:path-effect
       effect="interpolate"
       id="path-effect17993"
       is_visible="true"
       lpeversion="1"
       trajectory="m 381.48564,1580.9769 -26.91958,-39.9348"
       equidistant_spacing="true"
       steps="68" />
    <inkscape:path-effect
       effect="spiro"
       id="path-effect17995"
       is_visible="true"
       lpeversion="1" />
    <inkscape:path-effect
       effect="spiro"
       id="path-effect17997"
       is_visible="true"
       lpeversion="1" />
    <inkscape:path-effect
       effect="spiro"
       id="path-effect17999"
       is_visible="true"
       lpeversion="1" />
    <inkscape:path-effect
       effect="spiro"
       id="path-effect18001"
       is_visible="true"
       lpeversion="1" />
    <inkscape:path-effect
       effect="interpolate"
       id="path-effect18025"
       is_visible="true"
       lpeversion="1"
       trajectory="m 37.663337,1670.6927 26.919582,-39.9348"
       equidistant_spacing="true"
       steps="68" />
    <inkscape:path-effect
       effect="interpolate"
       id="path-effect18027"
       is_visible="true"
       lpeversion="1"
       trajectory="M 64.582928,1670.6927 37.663346,1630.7579"
       equidistant_spacing="true"
       steps="68" />
    <inkscape:path-effect
       effect="spiro"
       id="path-effect18029"
       is_visible="true"
       lpeversion="1" />
    <inkscape:path-effect
       effect="spiro"
       id="path-effect18031"
       is_visible="true"
       lpeversion="1" />
    <inkscape:path-effect
       effect="spiro"
       id="path-effect18033"
       is_visible="true"
       lpeversion="1" />
    <inkscape:path-effect
       effect="spiro"
       id="path-effect18035"
       is_visible="true"
       lpeversion="1" />
    <inkscape:path-effect
       effect="interpolate"
       id="path-effect18059"
       is_visible="true"
       lpeversion="1"
       trajectory="m 101.04435,1670.6827 26.91958,-39.9348"
       equidistant_spacing="true"
       steps="68" />
    <inkscape:path-effect
       effect="interpolate"
       id="path-effect18061"
       is_visible="true"
       lpeversion="1"
       trajectory="m 127.96394,1670.6827 -26.91958,-39.9348"
       equidistant_spacing="true"
       steps="68" />
    <inkscape:path-effect
       effect="spiro"
       id="path-effect18063"
       is_visible="true"
       lpeversion="1" />
    <inkscape:path-effect
       effect="spiro"
       id="path-effect18065"
       is_visible="true"
       lpeversion="1" />
    <inkscape:path-effect
       effect="spiro"
       id="path-effect18067"
       is_visible="true"
       lpeversion="1" />
    <inkscape:path-effect
       effect="spiro"
       id="path-effect18069"
       is_visible="true"
       lpeversion="1" />
    <inkscape:path-effect
       effect="interpolate"
       id="path-effect18093"
       is_visible="true"
       lpeversion="1"
       trajectory="m 164.42479,1670.6827 26.91958,-39.9348"
       equidistant_spacing="true"
       steps="68" />
    <inkscape:path-effect
       effect="interpolate"
       id="path-effect18095"
       is_visible="true"
       lpeversion="1"
       trajectory="M 191.34438,1670.6827 164.4248,1630.7479"
       equidistant_spacing="true"
       steps="68" />
    <inkscape:path-effect
       effect="spiro"
       id="path-effect18097"
       is_visible="true"
       lpeversion="1" />
    <inkscape:path-effect
       effect="spiro"
       id="path-effect18099"
       is_visible="true"
       lpeversion="1" />
    <inkscape:path-effect
       effect="spiro"
       id="path-effect18101"
       is_visible="true"
       lpeversion="1" />
    <inkscape:path-effect
       effect="spiro"
       id="path-effect18103"
       is_visible="true"
       lpeversion="1" />
    <inkscape:path-effect
       effect="interpolate"
       id="path-effect18127"
       is_visible="true"
       lpeversion="1"
       trajectory="m 227.80521,1670.6827 26.91958,-39.9348"
       equidistant_spacing="true"
       steps="68" />
    <inkscape:path-effect
       effect="interpolate"
       id="path-effect18129"
       is_visible="true"
       lpeversion="1"
       trajectory="m 254.7248,1670.6827 -26.91958,-39.9348"
       equidistant_spacing="true"
       steps="68" />
    <inkscape:path-effect
       effect="spiro"
       id="path-effect18131"
       is_visible="true"
       lpeversion="1" />
    <inkscape:path-effect
       effect="spiro"
       id="path-effect18133"
       is_visible="true"
       lpeversion="1" />
    <inkscape:path-effect
       effect="spiro"
       id="path-effect18135"
       is_visible="true"
       lpeversion="1" />
    <inkscape:path-effect
       effect="spiro"
       id="path-effect18137"
       is_visible="true"
       lpeversion="1" />
    <inkscape:path-effect
       effect="interpolate"
       id="path-effect18161"
       is_visible="true"
       lpeversion="1"
       trajectory="m 291.18563,1670.6827 26.91958,-39.9348"
       equidistant_spacing="true"
       steps="68" />
    <inkscape:path-effect
       effect="interpolate"
       id="path-effect18163"
       is_visible="true"
       lpeversion="1"
       trajectory="m 318.10522,1670.6827 -26.91958,-39.9348"
       equidistant_spacing="true"
       steps="68" />
    <inkscape:path-effect
       effect="spiro"
       id="path-effect18165"
       is_visible="true"
       lpeversion="1" />
    <inkscape:path-effect
       effect="spiro"
       id="path-effect18167"
       is_visible="true"
       lpeversion="1" />
    <inkscape:path-effect
       effect="spiro"
       id="path-effect18169"
       is_visible="true"
       lpeversion="1" />
    <inkscape:path-effect
       effect="spiro"
       id="path-effect18171"
       is_visible="true"
       lpeversion="1" />
    <inkscape:path-effect
       effect="interpolate"
       id="path-effect18195"
       is_visible="true"
       lpeversion="1"
       trajectory="m 354.56605,1670.6827 26.91958,-39.9348"
       equidistant_spacing="true"
       steps="68" />
    <inkscape:path-effect
       effect="interpolate"
       id="path-effect18197"
       is_visible="true"
       lpeversion="1"
       trajectory="m 381.48564,1670.6827 -26.91958,-39.9348"
       equidistant_spacing="true"
       steps="68" />
    <inkscape:path-effect
       effect="spiro"
       id="path-effect18199"
       is_visible="true"
       lpeversion="1" />
    <inkscape:path-effect
       effect="spiro"
       id="path-effect18201"
       is_visible="true"
       lpeversion="1" />
    <inkscape:path-effect
       effect="spiro"
       id="path-effect18203"
       is_visible="true"
       lpeversion="1" />
    <inkscape:path-effect
       effect="spiro"
       id="path-effect18205"
       is_visible="true"
       lpeversion="1" />
    <inkscape:path-effect
       effect="spiro"
       id="path-effect24882"
       is_visible="true"
       lpeversion="1" />
    <inkscape:path-effect
       effect="spiro"
       id="path-effect24886"
       is_visible="true"
       lpeversion="1" />
    <inkscape:path-effect
       effect="spiro"
       id="path-effect24890"
       is_visible="true"
       lpeversion="1" />
    <inkscape:path-effect
       effect="spiro"
       id="path-effect24894"
       is_visible="true"
       lpeversion="1" />
    <inkscape:path-effect
       effect="spiro"
       id="path-effect24898"
       is_visible="true"
       lpeversion="1" />
    <inkscape:path-effect
       effect="spiro"
       id="path-effect32877"
       is_visible="true"
       lpeversion="1" />
    <inkscape:path-effect
       effect="spiro"
       id="path-effect32881"
       is_visible="true"
       lpeversion="1" />
    <inkscape:path-effect
       effect="spiro"
       id="path-effect32886"
       is_visible="true"
       lpeversion="1" />
    <inkscape:path-effect
       effect="spiro"
       id="path-effect32902"
       is_visible="true"
       lpeversion="1" />
    <inkscape:path-effect
       effect="spiro"
       id="path-effect24902"
       is_visible="true"
       lpeversion="1" />
    <inkscape:path-effect
       effect="spiro"
       id="path-effect24906"
       is_visible="true"
       lpeversion="1" />
    <inkscape:path-effect
       effect="spiro"
       id="path-effect24910"
       is_visible="true"
       lpeversion="1" />
    <inkscape:path-effect
       effect="spiro"
       id="path-effect24914"
       is_visible="true"
       lpeversion="1" />
    <inkscape:path-effect
       effect="spiro"
       id="path-effect24918"
       is_visible="true"
       lpeversion="1" />
    <inkscape:path-effect
       effect="spiro"
       id="path-effect32890"
       is_visible="true"
       lpeversion="1" />
    <inkscape:path-effect
       effect="spiro"
       id="path-effect32894"
       is_visible="true"
       lpeversion="1" />
    <inkscape:path-effect
       effect="spiro"
       id="path-effect32898"
       is_visible="true"
       lpeversion="1" />
    <inkscape:path-effect
       effect="spiro"
       id="path-effect32906"
       is_visible="true"
       lpeversion="1" />
  </defs>
  <sodipodi:namedview
     id="base"
     pagecolor="#ffffff"
     bordercolor="#666666"
     borderopacity="1.0"
     inkscape:pageopacity="0.0"
     inkscape:pageshadow="2"
     inkscape:zoom="0.49497475"
     inkscape:cx="-14.142136"
     inkscape:cy="403.05086"
     inkscape:document-units="mm"
     inkscape:current-layer="layer1"
     inkscape:document-rotation="0"
     showgrid="false"
     inkscape:window-width="1920"
     inkscape:window-height="1020"
     inkscape:window-x="0"
     inkscape:window-y="34"
     inkscape:window-maximized="1"
     inkscape:pagecheckerboard="0"
     inkscape:lockguides="true"
     showguides="true"
     inkscape:guide-bbox="true">
    <sodipodi:guide
       position="123.2016,262.18028"
       orientation="1,0"
       id="guide27006"
       inkscape:locked="true" />
    <sodipodi:guide
       position="208.20159,262.18028"
       orientation="1,0"
       id="guide27008"
       inkscape:locked="true" />
    <sodipodi:guide
       position="293.05561,262.18033"
       orientation="1,0"
       id="guide27010"
       inkscape:locked="true" />
    <sodipodi:guide
       position="36.614092,205.59277"
       orientation="0,-1"
       id="guide27012"
       inkscape:locked="true" />
    <sodipodi:guide
       position="36.614092,150.59275"
       orientation="0,-1"
       id="guide27014"
       inkscape:locked="true" />
    <sodipodi:guide
       position="36.614092,95.592753"
       orientation="0,-1"
       id="guide27016"
       inkscape:locked="true" />
    <sodipodi:guide
       position="36.614092,40.592741"
       orientation="0,-1"
       id="guide27018"
       inkscape:locked="true" />
    <sodipodi:guide
       position="383.38227,260.59283"
       orientation="0,-1"
       id="guide27020"
       inkscape:locked="true" />
    <sodipodi:guide
       position="38.201593,265.91944"
       orientation="1,0"
       id="guide27431"
       inkscape:locked="true" />
    <sodipodi:guide
       position="378.0556,262.18033"
       orientation="1,0"
       id="guide27433"
       inkscape:locked="true" />
  </sodipodi:namedview>
  <metadata
     id="metadata51959">
    <rdf:RDF>
      <cc:Work
         rdf:about="">
        <dc:format>image/svg+xml</dc:format>
        <dc:type
           rdf:resource="http://purl.org/dc/dcmitype/StillImage" />
      </cc:Work>
    </rdf:RDF>
  </metadata>
  <g
     inkscape:label="Calque 1"
     inkscape:groupmode="layer"
     id="layer1">
    <path
       style="fill:none;stroke:#000000;stroke-width:0.407218px;stroke-linecap:butt;stroke-linejoin:miter;stroke-opacity:1"
       d="M 19.133763,30.485156 V 13.648063"
       id="path53431"
       inkscape:path-effect="#path-effect53433"
       inkscape:original-d="m 19.133763,30.485156 c 2.65e-4,-5.611738 0,-16.837093 0,-16.837093" />
    <path
       style="fill:none;stroke:#000000;stroke-width:0.407218px;stroke-linecap:butt;stroke-linejoin:miter;stroke-opacity:1"
       d="M 399.41629,30.485156 V 13.648063"
       id="path53439"
       inkscape:path-effect="#path-effect53441"
       inkscape:original-d="m 399.41629,30.485156 c 2.7e-4,-5.611738 0,-16.837093 0,-16.837093" />
    <g
       id="g6653"
       transform="matrix(0.9,0,0,0.9,10.988143,45.64484)" />
    <path
       style="fill:none;stroke:#000000;stroke-width:0.264583px;stroke-linecap:butt;stroke-linejoin:miter;stroke-opacity:1"
       d="M 208.20159,34.819724 V 31.080567"
       id="path24880"
       inkscape:original-d="m 208.20159,34.819724 c 2.6e-4,-1.246121 0,-3.739157 0,-3.739157"
       inkscape:path-effect="#path-effect24882" />
    <path
       style="fill:none;stroke:#000000;stroke-width:0.264583px;stroke-linecap:butt;stroke-linejoin:miter;stroke-opacity:1"
       d="M 123.2016,34.819724 V 31.080567"
       id="path24884"
       inkscape:original-d="m 123.2016,34.819724 c 2.6e-4,-1.24612 0,-3.739157 0,-3.739157"
       inkscape:path-effect="#path-effect24886" />
    <path
       style="fill:none;stroke:#000000;stroke-width:0.264583px;stroke-linecap:butt;stroke-linejoin:miter;stroke-opacity:1"
       d="m 32.874936,36.407239 h 3.739157"
       id="path32875"
       inkscape:original-d="m 32.874936,36.407239 c 1.246117,2.6e-4 3.739157,0 3.739157,0"
       inkscape:path-effect="#path-effect32877" />
    <path
       style="fill:none;stroke:#000000;stroke-width:0.264583px;stroke-linecap:butt;stroke-linejoin:miter;stroke-opacity:1"
       d="m 32.874936,91.40724 h 3.739157"
       id="path32879"
       inkscape:original-d="m 32.874936,91.40724 c 1.246117,2.6e-4 3.739157,0 3.739157,0"
       inkscape:path-effect="#path-effect32881" />
    <path
       style="fill:none;stroke:#000000;stroke-width:0.264583px;stroke-linecap:butt;stroke-linejoin:miter;stroke-opacity:1"
       d="m 32.874936,146.40725 h 3.739157"
       id="path32884"
       inkscape:original-d="m 32.874936,146.40725 c 1.246117,2.6e-4 3.739157,0 3.739157,0"
       inkscape:path-effect="#path-effect32886" />
    <path
       style="fill:none;stroke:#000000;stroke-width:0.264583px;stroke-linecap:butt;stroke-linejoin:miter;stroke-opacity:1"
       d="M 38.201594,34.819727 V 31.080571"
       id="path32900"
       inkscape:original-d="m 38.201594,34.819727 c 2.6e-4,-1.24612 0,-3.739156 0,-3.739156"
       inkscape:path-effect="#path-effect32902" />
    <path
       style="fill:none;stroke:#000000;stroke-width:0.264583px;stroke-linecap:butt;stroke-linejoin:miter;stroke-opacity:1"
       d="m 208.20159,261.73392 v -3.73916"
       id="path24912"
       inkscape:original-d="m 208.20159,261.73392 c 2.6e-4,-1.24612 0,-3.73916 0,-3.73916"
       inkscape:path-effect="#path-effect24914" />
    <path
       style="fill:none;stroke:#000000;stroke-width:0.264583px;stroke-linecap:butt;stroke-linejoin:miter;stroke-opacity:1"
       d="m 123.2016,261.73392 v -3.73916"
       id="path24916"
       inkscape:original-d="m 123.2016,261.73392 c 2.6e-4,-1.24612 0,-3.73916 0,-3.73916"
       inkscape:path-effect="#path-effect24918" />
    <path
       style="fill:none;stroke:#000000;stroke-width:0.264583px;stroke-linecap:butt;stroke-linejoin:miter;stroke-opacity:1"
       d="m 32.874936,146.40725 h 3.739157"
       id="path32888"
       inkscape:original-d="m 32.874936,146.40725 c 1.246117,2.6e-4 3.739157,0 3.739157,0"
       inkscape:path-effect="#path-effect32890" />
    <path
       style="fill:none;stroke:#000000;stroke-width:0.264583px;stroke-linecap:butt;stroke-linejoin:miter;stroke-opacity:1"
       d="m 32.874936,201.40725 h 3.739157"
       id="path32892"
       inkscape:original-d="m 32.874936,201.40725 c 1.246117,2.6e-4 3.739157,0 3.739157,0"
       inkscape:path-effect="#path-effect32894" />
    <path
       style="fill:none;stroke:#000000;stroke-width:0.264583px;stroke-linecap:butt;stroke-linejoin:miter;stroke-opacity:1"
       d="m 32.874936,256.40726 h 3.739157"
       id="path32896"
       inkscape:original-d="m 32.874936,256.40726 c 1.246117,2.6e-4 3.739157,0 3.739157,0"
       inkscape:path-effect="#path-effect32898" />
    <path
       style="fill:none;stroke:#000000;stroke-width:0.264583px;stroke-linecap:butt;stroke-linejoin:miter;stroke-opacity:1"
       d="m 38.201609,261.73392 v -3.73916"
       id="path32904"
       inkscape:original-d="m 38.201609,261.73392 c 2.6e-4,-1.24612 0,-3.73916 0,-3.73916"
       inkscape:path-effect="#path-effect32906" />
    <path
       style="fill:none;stroke:#000000;stroke-width:0.264583px;stroke-linecap:butt;stroke-linejoin:miter;stroke-opacity:1"
       d="m 378.05561,34.819677 v -3.7391"
       id="path8451"
       inkscape:original-d="m 378.05561,34.819677 c 2.6e-4,-1.2461 0,-3.7391 0,-3.7391"
       inkscape:path-effect="#path-effect11259" />
    <path
       style="fill:none;stroke:#000000;stroke-width:0.264583px;stroke-linecap:butt;stroke-linejoin:miter;stroke-opacity:1"
       d="m 293.05562,34.819677 v -3.7391"
       id="path8453"
       inkscape:original-d="m 293.05562,34.819677 c 2.6e-4,-1.2461 0,-3.7391 0,-3.7391"
       inkscape:path-effect="#path-effect11263" />
    <path
       style="fill:none;stroke:#000000;stroke-width:0.264583px;stroke-linecap:butt;stroke-linejoin:miter;stroke-opacity:1"
       d="m 379.64312,36.407177 h 3.73916"
       id="path8455"
       inkscape:original-d="m 379.64312,36.407177 c 1.24612,3e-4 3.73916,0 3.73916,0"
       inkscape:path-effect="#path-effect11267" />
    <path
       style="fill:none;stroke:#000000;stroke-width:0.264583px;stroke-linecap:butt;stroke-linejoin:miter;stroke-opacity:1"
       d="m 379.64312,91.407177 h 3.73916"
       id="path8457"
       inkscape:original-d="m 379.64312,91.407177 c 1.24612,3e-4 3.73916,0 3.73916,0"
       inkscape:path-effect="#path-effect11271" />
    <path
       style="fill:none;stroke:#000000;stroke-width:0.264583px;stroke-linecap:butt;stroke-linejoin:miter;stroke-opacity:1"
       d="m 379.64312,146.40728 h 3.73916"
       id="path8459"
       inkscape:original-d="m 379.64312,146.40728 c 1.24612,2e-4 3.73916,0 3.73916,0"
       inkscape:path-effect="#path-effect11275" />
    <path
       style="fill:none;stroke:#000000;stroke-width:0.264583px;stroke-linecap:butt;stroke-linejoin:miter;stroke-opacity:1"
       d="m 208.05561,34.819777 v -3.7392"
       id="path9387"
       inkscape:original-d="m 208.05561,34.819777 c 2.6e-4,-1.2462 0,-3.7392 0,-3.7392"
       inkscape:path-effect="#path-effect11291" />
    <path
       style="fill:none;stroke:#000000;stroke-width:0.264583px;stroke-linecap:butt;stroke-linejoin:miter;stroke-opacity:1"
       d="m 379.64312,146.40728 h 3.73916"
       id="path10311"
       inkscape:original-d="m 379.64312,146.40728 c 1.24612,2e-4 3.73916,0 3.73916,0"
       inkscape:path-effect="#path-effect11295" />
    <path
       style="fill:none;stroke:#000000;stroke-width:0.264583px;stroke-linecap:butt;stroke-linejoin:miter;stroke-opacity:1"
       d="m 379.64312,201.40728 h 3.73916"
       id="path10313"
       inkscape:original-d="m 379.64312,201.40728 c 1.24612,2e-4 3.73916,0 3.73916,0"
       inkscape:path-effect="#path-effect11299" />
    <path
       style="fill:none;stroke:#000000;stroke-width:0.264583px;stroke-linecap:butt;stroke-linejoin:miter;stroke-opacity:1"
       d="m 379.64312,256.40728 h 3.73916"
       id="path10315"
       inkscape:original-d="m 379.64312,256.40728 c 1.24612,2e-4 3.73916,0 3.73916,0"
       inkscape:path-effect="#path-effect11303" />
    <path
       style="fill:none;stroke:#000000;stroke-width:0.264583px;stroke-linecap:butt;stroke-linejoin:miter;stroke-opacity:1"
       d="m 378.05561,261.73388 v -3.7391"
       id="path10317"
       inkscape:original-d="m 378.05561,261.73388 c 2.6e-4,-1.2461 0,-3.7391 0,-3.7391"
       inkscape:path-effect="#path-effect11307" />
    <path
       style="fill:none;stroke:#000000;stroke-width:0.264583px;stroke-linecap:butt;stroke-linejoin:miter;stroke-opacity:1"
       d="m 293.05562,261.73388 v -3.7391"
       id="path10319"
       inkscape:original-d="m 293.05562,261.73388 c 2.6e-4,-1.2461 0,-3.7391 0,-3.7391"
       inkscape:path-effect="#path-effect11311" />
    <path
       style="fill:none;stroke:#000000;stroke-width:0.264583px;stroke-linecap:butt;stroke-linejoin:miter;stroke-opacity:1"
       d="m 208.05562,261.73388 v -3.7391"
       id="path11247"
       inkscape:original-d="m 208.05562,261.73388 c 2.6e-4,-1.2461 0,-3.7391 0,-3.7391"
       inkscape:path-effect="#path-effect11327" />
    <g
       inkscape:label="Hershey Text"
       style="fill:none;stroke:#000000;stroke-linecap:round;stroke-linejoin:round"
       id="g27004"
       transform="matrix(2.1590489,0,0,2.1590489,1.5259808,186.53388)">
      <g
         transform="translate(5.08,45.72)"
         id="g27002">
        <path
           d="M 123,-15.8 V 472 h 337 l 47,-44 V -25.2 428 l 44,44 h 284 l 50,-50 V -22.1"
           style="stroke-width:0.7613in"
           transform="scale(0.00508,-0.00508)"
           id="path26988" />
        <path
           d="M 624,3.15 H 176 L 126,56.7 V 422 l 54,57 h 365 l 53,-54 V 243 H 123"
           style="stroke-width:0.7613in"
           transform="matrix(0.00508,0,0,-0.00508,4.4958,0)"
           id="path26990" />
        <path
           d="m 126,-22.1 -3,6.3 V 495 m -16,138 v 41 h 41 v -41 h -41"
           style="stroke-width:0.7613in"
           transform="matrix(0.00508,0,0,-0.00508,7.63016,0)"
           id="path26992" />
        <path
           d="M 123,677 V 9.45 H 545 L 595,63 v 359 l -53,54 H 164 l -35,-35"
           style="stroke-width:0.7613in"
           transform="matrix(0.00508,0,0,-0.00508,8.36676,0)"
           id="path26994" />
        <path
           d="M 145,413 V 63 L 198,6.3 h 366 l 50,50.4 V 435 l -44,47 H 208 l -63,-69"
           style="stroke-width:0.7613in"
           transform="matrix(0.00508,0,0,-0.00508,11.3741,0)"
           id="path26996" />
        <path
           d="M 145,413 V 63 L 198,6.3 h 366 l 50,50.4 V 435 l -44,47 H 208 l -63,-69"
           style="stroke-width:0.7613in"
           transform="matrix(0.00508,0,0,-0.00508,14.5898,0)"
           id="path26998" />
        <path
           d="M 123,-15.8 V 472 h 337 l 47,-44 V -25.2 428 l 44,44 h 284 l 50,-50 V -22.1"
           style="stroke-width:0.7613in"
           transform="matrix(0.00508,0,0,-0.00508,17.8054,0)"
           id="path27000" />
      </g>
    </g>
    <path
       style="display:inline;fill:none;stroke:#000000;stroke-width:0.406;stroke-linecap:butt;stroke-linejoin:miter;stroke-miterlimit:4;stroke-dasharray:none;stroke-opacity:1"
       d="m 41.011029,39.018336 h 3.384318 v 0.846073 h 6.24634 V 39.18546 h 1.566817 v 0.678949 h 5.703194 V 39.18546 h 1.566815 v 0.678949 h 5.703169 V 39.18546 H 66.7485 v 0.678949 h 5.703196 V 39.18546 h 1.56682 v 0.678949 H 86.991698 V 39.18546 h 1.56682 v 0.678949 h 5.70319 V 39.18546 h 1.56682 v 0.678949 h 5.703192 V 39.18546 h 1.56678 v 0.678949 h 5.7032 V 39.18546 h 1.56683 v 0.678949 h 6.24632 v -0.846073 h 3.38433 v 3.426088 h -0.88786 v 6.225467 h 0.67894 v 1.566791 h -0.67894 v 5.703196 h 0.67894 v 1.566816 h -0.67894 v 5.703198 h 0.67894 v 1.566816 h -0.67894 v 5.703194 h 0.67894 v 1.566792 h -0.67894 v 5.703196 h 0.67894 v 1.55637 h -0.67894 v 6.267238 h 0.88786 v 3.426086 h -3.38433 v -0.90874 h -6.24632 v 0.678948 h -1.56683 v -0.678948 h -5.7032 v 0.678948 h -1.56678 v -0.678948 h -4.909372 v 0.90874 h -3.1336 v -1.0341 h -8.56524 v 0.804308 h -1.566813 v -0.804308 h -5.703178 v 0.804308 h -1.566811 v -0.804308 h -8.544352 v 1.0341 h -3.133631 v -0.90874 h -4.93021 v 0.678948 h -1.566815 v -0.678948 h -5.703194 v 0.678948 h -1.566817 v -0.678948 h -6.24634 v 0.90874 h -3.384318 v -3.426086 h 0.877419 V 79.30626 h -0.678949 v -1.55637 h 0.678949 v -5.703196 h -0.678949 v -1.566792 h 0.678949 v -5.703194 h -0.678949 v -1.566816 h 0.678949 v -5.703198 h -0.678949 v -1.566816 h 0.678949 v -5.703196 h -0.678949 v -1.566791 h 0.678949 v -6.225467 h -0.877419 z"
       id="path71434"
       sodipodi:nodetypes="ccccccccccccccccccccccccccccccccccccccccccccccccccccccccccccccccccccccccccccccccccccccccccccccccccccccccccccccccccccccccccccc" />
    <g
       id="g13845"
       transform="translate(-5.825395,-0.52916667)">
      <path
         d="m 56.775076,65.257116 v -2.353056 0.52832 l 0.22352,-0.19304 0.20828,-0.17272 0.19304,-0.127 0.23876,-0.06604 0.20828,0.03048 0.14224,0.06604 0.16256,0.15748 0.11176,0.27432 0.03048,0.33528 v 1.519936 -1.773936 l 0.06604,-0.13208 0.33528,-0.29972 0.254,-0.13208 0.20828,-0.06096 0.22352,0.06096 0.14732,0.08128 0.17272,0.20828 0.08128,0.41656 v 1.615948"
         style="fill:none;stroke:#000000;stroke-width:0.0038674in;stroke-linecap:round;stroke-linejoin:round"
         id="path13472" />
      <path
         d="m 60.840092,63.99118 h 1.761744 V 63.7067 l -0.08128,-0.37084 -0.23876,-0.28448 -0.24384,-0.16256 -0.33528,-0.01524 -0.33528,0.09652 -0.28956,0.23876 -0.11176,0.23876 -0.125984,0.3048 -0.032,0.32004 0.07976,0.38608 0.144272,0.35052 0.28956,0.288544 0.26924,0.127508 0.33528,0.032 0.28956,-0.07976 0.27432,-0.144272"
         style="fill:none;stroke:#000000;stroke-width:0.0038674in;stroke-linecap:round;stroke-linejoin:round"
         id="path13474" />
      <path
         d="M 63.592416,65.257116 V 62.90406 M 63.448144,61.9287 v 0.254 h 0.256032 v -0.254 h -0.256032"
         style="fill:none;stroke:#000000;stroke-width:0.0038674in;stroke-linecap:round;stroke-linejoin:round"
         id="path13476" />
      <path
         d="M 64.857376,61.68994 V 65.257116 64.8243 l 0.1778,0.145288 0.26924,0.175768 0.28956,0.07976 0.28448,0.01626 0.34036,-0.192024 0.20828,-0.225044 0.15748,-0.32004 0.06604,-0.40132 -0.02032,-0.39624 -0.0762,-0.37084 -0.23876,-0.3048 -0.20828,-0.11176 -0.28956,-0.06096 -0.3048,0.06096 -0.3048,0.16256 -0.32004,0.254"
         style="fill:none;stroke:#000000;stroke-width:0.0038674in;stroke-linecap:round;stroke-linejoin:round"
         id="path13478" />
      <path
         d="m 68.555596,65.241368 h 0.01524 l 0.32004,-0.07976 0.3048,-0.20828 0.18796,-0.322072 0.08128,-0.35052 0.01524,-0.33528 -0.04572,-0.3048 -0.11176,-0.26924 -0.16256,-0.20828 -0.22352,-0.19304 -0.23876,-0.08128 -0.22352,-0.01524 -0.25908,0.04572 -0.23876,0.14732 -0.20828,0.23876 -0.11176,0.22352 -0.09449,0.33528 v 0.25908 l 0.0315,0.29972 0.07823,0.27432 0.19304,0.256032 0.22352,0.176276 0.24384,0.0955 0.22352,0.01626"
         style="fill:none;stroke:#000000;stroke-width:0.0038674in;stroke-linecap:round;stroke-linejoin:round"
         id="path13480" />
      <path
         d="m 71.405496,65.241368 h 0.01524 l 0.32004,-0.07976 0.3048,-0.20828 0.18796,-0.322072 0.08128,-0.35052 0.01524,-0.33528 -0.04572,-0.3048 -0.11176,-0.26924 -0.16256,-0.20828 -0.22352,-0.19304 -0.23876,-0.08128 -0.22352,-0.01524 -0.25908,0.04572 -0.23876,0.14732 -0.20828,0.23876 -0.11176,0.22352 -0.09449,0.33528 v 0.25908 l 0.0315,0.29972 0.07823,0.27432 0.19304,0.256032 0.22352,0.176276 0.24384,0.0955 0.22352,0.01626"
         style="fill:none;stroke:#000000;stroke-width:0.0038674in;stroke-linecap:round;stroke-linejoin:round"
         id="path13482" />
      <path
         d="m 73.422176,65.257116 v -2.353056 0.52832 l 0.22352,-0.19304 0.20828,-0.17272 0.19304,-0.127 0.23876,-0.06604 0.20828,0.03048 0.14224,0.06604 0.16256,0.15748 0.11176,0.27432 0.03048,0.33528 v 1.519936 -1.773936 l 0.06604,-0.13208 0.33528,-0.29972 0.254,-0.13208 0.20828,-0.06096 0.22352,0.06096 0.14732,0.08128 0.17272,0.20828 0.08128,0.41656 v 1.615948"
         style="fill:none;stroke:#000000;stroke-width:0.0038674in;stroke-linecap:round;stroke-linejoin:round"
         id="path13484" />
      <path
         d="m 79.553796,63.16314 0.33528,-0.19304 0.28448,-0.08128 0.28956,-0.03048 0.22352,0.08128 0.19304,0.17272 0.127,0.25908 0.01524,0.35052 v 1.07188 0.431292 l -0.01524,-0.431292 -0.20828,0.143256 -0.22352,0.160528 -0.254,0.11176 -0.28956,0.04775 -0.23876,-0.07976 -0.19304,-0.128016 -0.144272,-0.207772 V 64.53474 l 0.113792,-0.23876 0.254,-0.20828 0.254,-0.09652 0.3048,-0.09652 0.28956,-0.04572 0.1778,-0.01524 h 0.14224"
         style="fill:none;stroke:#000000;stroke-width:0.0038674in;stroke-linecap:round;stroke-linejoin:round"
         id="path13486" />
      <path
         d="m 82.256356,65.241368 v -2.352548 0.72136 l 0.14732,-0.28956 0.22352,-0.28956 0.23876,-0.11176 0.22352,-0.03048 0.14224,0.01524"
         style="fill:none;stroke:#000000;stroke-width:0.0038674in;stroke-linecap:round;stroke-linejoin:round"
         id="path13488" />
      <path
         d="m 84.847156,65.145356 -0.17272,0.07976 h -0.2286 l -0.2032,-0.0635 -0.1778,-0.20828 -0.03048,-0.352552 v -1.64592 h -0.466344 1.233424 -0.76708 V 62.2335"
         style="fill:none;stroke:#000000;stroke-width:0.0038674in;stroke-linecap:round;stroke-linejoin:round"
         id="path13490" />
      <path
         d="M 85.665016,65.257116 V 62.90406 M 85.520744,61.9287 v 0.254 h 0.256032 v -0.254 h -0.256032"
         style="fill:none;stroke:#000000;stroke-width:0.0038674in;stroke-linecap:round;stroke-linejoin:round"
         id="path13492" />
      <path
         d="m 86.640924,64.937076 0.289052,0.192532 0.32004,0.0955 0.254,0.032 0.32004,-0.11176 0.23876,-0.192024 0.08128,-0.286512 -0.06096,-0.28956 -0.28956,-0.23876 -0.40132,-0.16256 -0.36576,-0.15748 -0.20828,-0.20828 -0.04877,-0.23876 0.07925,-0.2286 0.25908,-0.22352 0.31496,-0.04572 0.32512,0.06604 0.26924,0.15748"
         style="fill:none;stroke:#000000;stroke-width:0.0038674in;stroke-linecap:round;stroke-linejoin:round"
         id="path13494" />
      <path
         d="m 89.998256,65.145356 -0.17272,0.07976 h -0.2286 l -0.2032,-0.0635 -0.1778,-0.20828 -0.03048,-0.352552 v -1.64592 h -0.466344 1.233424 -0.76708 V 62.2335"
         style="fill:none;stroke:#000000;stroke-width:0.0038674in;stroke-linecap:round;stroke-linejoin:round"
         id="path13496" />
      <path
         d="m 92.751656,65.241368 v -2.352548 0.72136 l 0.14732,-0.28956 0.22352,-0.28956 0.23876,-0.11176 0.22352,-0.03048 0.14224,0.01524"
         style="fill:none;stroke:#000000;stroke-width:0.0038674in;stroke-linecap:round;stroke-linejoin:round"
         id="path13498" />
      <path
         d="m 95.982536,62.9193 v 2.322068 -0.610108 l -0.17272,0.210312 -0.20828,0.207772 -0.28956,0.16002 -0.27432,0.04775 -0.28448,-0.07976 -0.19304,-0.16002 -0.11176,-0.20828 -0.01524,-0.40132 V 62.9193"
         style="fill:none;stroke:#000000;stroke-width:0.0038674in;stroke-linecap:round;stroke-linejoin:round"
         id="path13500" />
      <path
         d="m 97.277916,65.257116 v -2.368296 0.57404 l 0.22352,-0.22352 0.20828,-0.18796 0.16256,-0.09652 0.23876,-0.06604 0.15748,-0.01524 0.24384,0.06604 0.14224,0.09144 0.11176,0.16256 0.09652,0.22352 v 1.839976"
         style="fill:none;stroke:#000000;stroke-width:0.0038674in;stroke-linecap:round;stroke-linejoin:round"
         id="path13502" />
      <path
         d="m 101.72853,64.937076 0.28905,0.192532 0.32004,0.0955 0.254,0.032 0.32004,-0.11176 0.23876,-0.192024 0.0813,-0.286512 -0.061,-0.28956 -0.28956,-0.23876 -0.40132,-0.16256 -0.36576,-0.15748 -0.20828,-0.20828 -0.0488,-0.23876 0.0793,-0.2286 0.25908,-0.22352 0.31496,-0.04572 0.32512,0.06604 0.26924,0.15748"
         style="fill:none;stroke:#000000;stroke-width:0.0038674in;stroke-linecap:round;stroke-linejoin:round"
         id="path13504" />
      <path
         d="m 104.19178,66.32798 v -3.43916 0.51308 l 0.26924,-0.27432 0.32004,-0.17272 0.27432,-0.0508 h 0.33528 l 0.25908,0.14732 0.22352,0.32004 0.11176,0.36576 v 0.41656 l -0.0508,0.35052 -0.17272,0.368808 -0.25908,0.240284 -0.19304,0.09601 -0.29972,0.01575 -0.24384,-0.04775 -0.26924,-0.144272 -0.25908,-0.175768"
         style="fill:none;stroke:#000000;stroke-width:0.0038674in;stroke-linecap:round;stroke-linejoin:round"
         id="path13506" />
      <path
         d="m 107.0417,63.16314 0.33528,-0.19304 0.28448,-0.08128 0.28956,-0.03048 0.22352,0.08128 0.19304,0.17272 0.127,0.25908 0.0152,0.35052 v 1.07188 0.431292 l -0.0152,-0.431292 -0.20828,0.143256 -0.22352,0.160528 -0.254,0.11176 -0.28956,0.04775 -0.23876,-0.07976 -0.19304,-0.128016 -0.14427,-0.207772 V 64.53474 l 0.11379,-0.23876 0.254,-0.20828 0.254,-0.09652 0.3048,-0.09652 0.28956,-0.04572 0.1778,-0.01524 h 0.14224"
         style="fill:none;stroke:#000000;stroke-width:0.0038674in;stroke-linecap:round;stroke-linejoin:round"
         id="path13508" />
      <path
         d="m 111.18698,64.969588 -0.25908,0.192024 -0.381,0.07976 -0.3556,-0.04826 -0.36576,-0.239776 -0.20828,-0.337312 -0.0803,-0.39624 v -0.41656 l 0.12598,-0.38608 0.25908,-0.3048 0.3048,-0.17272 0.33528,-0.0508 0.28448,0.0508 0.19304,0.09144 0.0813,0.09652"
         style="fill:none;stroke:#000000;stroke-width:0.0038674in;stroke-linecap:round;stroke-linejoin:round"
         id="path13510" />
      <path
         d="m 111.9347,63.99118 h 1.76174 V 63.7067 l -0.0813,-0.37084 -0.23876,-0.28448 -0.24384,-0.16256 -0.33528,-0.01524 -0.33528,0.09652 -0.28956,0.23876 -0.11176,0.23876 -0.12598,0.3048 -0.032,0.32004 0.0798,0.38608 0.14427,0.35052 0.28956,0.288544 0.26924,0.127508 0.33528,0.032 0.28956,-0.07976 0.27432,-0.144272"
         style="fill:none;stroke:#000000;stroke-width:0.0038674in;stroke-linecap:round;stroke-linejoin:round"
         id="path13512" />
      <path
         d="m 114.38273,64.937076 0.28905,0.192532 0.32004,0.0955 0.254,0.032 0.32004,-0.11176 0.23876,-0.192024 0.0813,-0.286512 -0.061,-0.28956 -0.28956,-0.23876 -0.40132,-0.16256 -0.36576,-0.15748 -0.20828,-0.20828 -0.0488,-0.23876 0.0793,-0.2286 0.25908,-0.22352 0.31496,-0.04572 0.32512,0.06604 0.26924,0.15748"
         style="fill:none;stroke:#000000;stroke-width:0.0038674in;stroke-linecap:round;stroke-linejoin:round"
         id="path13514" />
    </g>
  </g>
</svg>
